# Blender MTL File: 'None'
# Material Count: 1
newmtl Material.001_floor_01_1.png
Ns 96.078431
Ka 0.000000 0.000000 0.000000
Kd 0.640000 0.640000 0.640000
Ks 0.000000 0.000000 0.000000
Ni 1.000000
d 1.000000
illum 1
map_Kd C:\Users\Chris\Pictures\CGBC Textures\floor_01_1.png


