# Blender v2.63 (sub 0) OBJ File: 'traffic-light-modern.blend'
# www.blender.org
mtllib traffic-light-modern.mtl
o Traffic_Light_case
v 0.856907 -1.325430 2.277746
v 0.856908 -2.083297 2.032688
v -0.856683 -2.083299 2.032691
v -0.856683 -1.325432 2.277748
v 0.856908 -1.325431 1.000309
v 0.856907 -3.039021 1.000309
v -0.856683 -3.039022 1.000311
v -0.856683 -1.325433 1.000310
v 0.856907 3.052429 2.277745
v 0.856907 2.294562 2.032688
v -0.856683 2.294560 2.032690
v -0.856683 3.052427 2.277747
v 0.856907 3.052428 1.000308
v 0.856907 1.338838 1.000308
v -0.856684 1.338836 1.000310
v -0.856684 3.052426 1.000310
v 0.856907 0.852892 2.277745
v 0.856907 0.095026 2.032688
v -0.856683 0.095024 2.032690
v -0.856683 0.852890 2.277748
v 0.856908 0.852892 1.000308
v 0.856907 -0.860698 1.000308
v -0.856683 -0.860700 1.000310
v -0.856683 0.852890 1.000310
v 0.856907 -1.325429 -2.277741
v 0.856907 -2.083296 -2.032684
v -0.856684 -2.083298 -2.032682
v -0.856683 -1.325431 -2.277739
v 0.856907 -1.325430 -1.000304
v 0.856906 -3.039020 -1.000304
v -0.856684 -3.039021 -1.000302
v -0.856683 -1.325431 -1.000302
v 0.856907 3.052430 -2.277742
v 0.856907 2.294563 -2.032684
v -0.856683 2.294561 -2.032682
v -0.856683 3.052428 -2.277740
v 0.856907 3.052429 -1.000304
v 0.856906 1.338839 -1.000304
v -0.856684 1.338838 -1.000302
v -0.856683 3.052428 -1.000302
v 0.856907 0.852893 -2.277741
v 0.856907 0.095027 -2.032684
v -0.856683 0.095025 -2.032682
v -0.856683 0.852891 -2.277739
v 0.856907 0.852893 -1.000304
v 0.856906 -0.860697 -1.000304
v -0.856684 -0.860699 -1.000302
v -0.856683 0.852891 -1.000302
v 2.277856 -1.325428 -0.856796
v 2.032798 -2.083295 -0.856796
v 2.032798 -2.083295 0.856794
v 2.277856 -1.325428 0.856793
v 1.000418 -1.325429 -0.856795
v 1.000418 -3.039019 -0.856794
v 1.000418 -3.039018 0.856796
v 1.000418 -1.325428 0.856795
v 2.277855 3.052431 -0.856796
v 2.032798 2.294564 -0.856796
v 2.032798 2.294564 0.856795
v 2.277855 3.052431 0.856794
v 1.000418 3.052430 -0.856795
v 1.000418 1.338840 -0.856794
v 1.000418 1.338841 0.856796
v 1.000418 3.052431 0.856796
v 2.277855 0.852895 -0.856796
v 2.032798 0.095028 -0.856796
v 2.032798 0.095028 0.856794
v 2.277855 0.852895 0.856794
v 1.000418 0.852894 -0.856795
v 1.000418 -0.860696 -0.856794
v 1.000418 -0.860696 0.856796
v 1.000418 0.852894 0.856796
v -2.277632 -1.325428 -0.856791
v -2.032575 -2.083294 -0.856791
v -2.032575 -2.083294 0.856799
v -2.277632 -1.325427 0.856799
v -1.000195 -1.325428 -0.856793
v -1.000195 -3.039018 -0.856792
v -1.000195 -3.039017 0.856798
v -1.000195 -1.325427 0.856798
v -2.277632 3.052432 -0.856791
v -2.032575 2.294565 -0.856791
v -2.032574 2.294565 0.856799
v -2.277632 3.052432 0.856799
v -1.000195 3.052432 -0.856793
v -1.000195 1.338841 -0.856792
v -1.000195 1.338842 0.856798
v -1.000195 3.052432 0.856798
v -2.277632 0.852895 -0.856791
v -2.032575 0.095029 -0.856791
v -2.032575 0.095029 0.856799
v -2.277632 0.852896 0.856799
v -1.000195 0.852895 -0.856793
v -1.000195 -0.860695 -0.856792
v -1.000195 -0.860694 0.856798
v -1.000195 0.852896 0.856798
v -0.784312 1.189086 -0.784312
v -0.784312 -1.181346 -0.784312
v -0.784312 -1.181345 0.784312
v -0.784312 1.189087 0.784312
v 0.784312 1.189086 -0.784312
v 0.784312 -1.181347 -0.784311
v 0.784312 -1.181345 0.784312
v 0.784312 1.189086 0.784312
v -1.000000 3.189184 -0.999997
v -1.000000 1.189184 -0.999997
v -1.000000 1.189185 1.000003
v -1.000000 3.189185 1.000002
v 1.000000 3.189184 -1.000000
v 1.000000 1.189184 -0.999999
v 1.000000 1.189185 1.000001
v 1.000000 3.189185 1.000000
v -1.000000 0.999995 -0.999997
v -1.000000 -1.000005 -0.999997
v -1.000000 -1.000005 1.000003
v -1.000000 0.999996 1.000002
v 1.000000 0.999995 -1.000000
v 1.000000 -1.000005 -0.999999
v 1.000000 -1.000004 1.000001
v 1.000000 0.999996 1.000000
v -1.000000 -1.181741 -0.999997
v -1.000000 -3.181741 -0.999997
v -1.000000 -3.181740 1.000003
v -1.000000 -1.181740 1.000002
v 1.000000 -1.181740 -1.000000
v 1.000000 -3.181741 -0.999999
v 1.000000 -3.181739 1.000001
v 1.000000 -1.181740 1.000000
usemtl Traffic_Light_case
s off
f 1 2 6 5
f 3 4 8 7
f 4 1 5 8
f 9 10 14 13
f 11 12 16 15
f 13 16 12 9
f 17 18 22 21
f 19 20 24 23
f 21 24 20 17
f 25 29 30 26
f 27 31 32 28
f 29 25 28 32
f 33 37 38 34
f 35 39 40 36
f 37 33 36 40
f 41 45 46 42
f 43 47 48 44
f 45 41 44 48
f 49 50 54 53
f 51 52 56 55
f 52 49 53 56
f 57 58 62 61
f 59 60 64 63
f 61 64 60 57
f 65 66 70 69
f 67 68 72 71
f 69 72 68 65
f 73 77 78 74
f 75 79 80 76
f 77 73 76 80
f 81 85 86 82
f 83 87 88 84
f 85 81 84 88
f 89 93 94 90
f 91 95 96 92
f 93 89 92 96
f 97 98 99 100
f 101 104 103 102
f 97 101 102 98
f 98 102 103 99
f 99 103 104 100
f 101 97 100 104
f 105 106 107 108
f 109 112 111 110
f 105 109 110 106
f 106 110 111 107
f 107 111 112 108
f 109 105 108 112
f 113 114 115 116
f 117 120 119 118
f 113 117 118 114
f 114 118 119 115
f 115 119 120 116
f 117 113 116 120
f 121 122 123 124
f 125 128 127 126
f 121 125 126 122
f 122 126 127 123
f 123 127 128 124
f 125 121 124 128
o Sphere.001_Sphere
v -1.019903 -2.845456 0.378154
v -1.100536 -2.823138 0.365269
v -1.175674 -2.757706 0.327491
v -1.240197 -2.653617 0.267396
v -1.289707 -2.517967 0.189078
v -1.320830 -2.359999 0.097875
v -1.320830 -2.288351 0.169523
v -1.289707 -2.379554 0.327491
v -1.240197 -2.457871 0.463142
v -1.175674 -2.517967 0.567230
v -1.100536 -2.555744 0.632663
v -1.019903 -2.568630 0.654981
v -1.019903 -2.190477 0.756306
v -1.100536 -2.190477 0.730536
v -1.175674 -2.190477 0.654981
v -1.240197 -2.190477 0.534790
v -1.289707 -2.190477 0.378154
v -1.320830 -2.190477 0.195748
v -1.320830 -2.092605 0.169523
v -1.289707 -2.001401 0.327491
v -1.240197 -1.923083 0.463142
v -1.175674 -1.862988 0.567230
v -1.100536 -1.825210 0.632663
v -1.019903 -1.812325 0.654981
v -1.019903 -1.535498 0.378154
v -1.100536 -1.557817 0.365269
v -1.175674 -1.623249 0.327491
v -1.240197 -1.727337 0.267396
v -1.289707 -1.862988 0.189078
v -1.320830 -2.020957 0.097875
v -1.320830 -1.994732 0.000002
v -1.289707 -1.812325 0.000002
v -1.240197 -1.655689 0.000002
v -1.175674 -1.535498 0.000002
v -1.100536 -1.459944 0.000002
v -1.019903 -1.434173 0.000002
v -1.019903 -1.535498 -0.378150
v -1.100536 -1.557817 -0.365265
v -1.175674 -1.623249 -0.327488
v -1.240197 -1.727338 -0.267392
v -1.289707 -1.862988 -0.189074
v -1.320830 -2.020957 -0.097871
v -1.320830 -2.092605 -0.169519
v -1.289707 -2.001401 -0.327488
v -1.240197 -1.923084 -0.463138
v -1.175674 -1.862988 -0.567226
v -1.100536 -1.825210 -0.632659
v -1.019903 -1.812325 -0.654977
v -1.019903 -2.190477 -0.756302
v -1.100536 -2.190478 -0.730532
v -1.175674 -2.190477 -0.654977
v -1.240197 -2.190477 -0.534786
v -1.289707 -2.190478 -0.378150
v -1.320830 -2.190478 -0.195744
v -1.320830 -2.288351 -0.169519
v -1.289707 -2.379554 -0.327487
v -1.240197 -2.457871 -0.463138
v -1.175674 -2.517967 -0.567226
v -1.100536 -2.555745 -0.632659
v -1.019903 -2.568630 -0.654977
v -1.019903 -2.845456 -0.378150
v -1.100536 -2.823138 -0.365265
v -1.175674 -2.757706 -0.327487
v -1.240197 -2.653617 -0.267392
v -1.289707 -2.517967 -0.189074
v -1.320830 -2.359999 -0.097871
v -1.331445 -2.190477 0.000002
v -1.320830 -2.386224 0.000002
v -1.289707 -2.568630 0.000002
v -1.240197 -2.725266 0.000002
v -1.175674 -2.845456 0.000002
v -1.100536 -2.921011 0.000002
v -1.019903 -2.946782 0.000002
usemtl Green_light_off
s 1
f 201 129 130 200
f 200 130 131 199
f 199 131 132 198
f 198 132 133 197
f 197 133 134 196
f 196 134 195
f 134 135 195
f 133 136 135 134
f 132 137 136 133
f 131 138 137 132
f 130 139 138 131
f 129 140 139 130
f 140 141 142 139
f 139 142 143 138
f 138 143 144 137
f 137 144 145 136
f 136 145 146 135
f 135 146 195
f 146 147 195
f 145 148 147 146
f 144 149 148 145
f 143 150 149 144
f 142 151 150 143
f 141 152 151 142
f 152 153 154 151
f 151 154 155 150
f 150 155 156 149
f 149 156 157 148
f 148 157 158 147
f 147 158 195
f 158 159 195
f 157 160 159 158
f 156 161 160 157
f 155 162 161 156
f 154 163 162 155
f 153 164 163 154
f 164 165 166 163
f 163 166 167 162
f 162 167 168 161
f 161 168 169 160
f 160 169 170 159
f 159 170 195
f 170 171 195
f 169 172 171 170
f 168 173 172 169
f 167 174 173 168
f 166 175 174 167
f 165 176 175 166
f 176 177 178 175
f 175 178 179 174
f 174 179 180 173
f 173 180 181 172
f 172 181 182 171
f 171 182 195
f 182 183 195
f 181 184 183 182
f 180 185 184 181
f 179 186 185 180
f 178 187 186 179
f 177 188 187 178
f 188 189 190 187
f 187 190 191 186
f 186 191 192 185
f 185 192 193 184
f 184 193 194 183
f 183 194 195
f 194 196 195
f 193 197 196 194
f 192 198 197 193
f 191 199 198 192
f 190 200 199 191
f 189 201 200 190
o Sphere.011_Sphere.013
v 0.378942 0.654719 -1.021311
v 0.366057 0.632401 -1.101944
v 0.328279 0.566969 -1.177082
v 0.268183 0.462880 -1.241605
v 0.189866 0.327230 -1.291114
v 0.098662 0.169261 -1.322238
v 0.170310 0.097613 -1.322238
v 0.328279 0.188816 -1.291114
v 0.463929 0.267134 -1.241605
v 0.568018 0.327230 -1.177082
v 0.633450 0.365007 -1.101944
v 0.655768 0.377892 -1.021311
v 0.757094 -0.000260 -1.021311
v 0.731323 -0.000260 -1.101944
v 0.655768 -0.000260 -1.177082
v 0.535577 -0.000260 -1.241605
v 0.378942 -0.000260 -1.291114
v 0.196535 -0.000260 -1.322238
v 0.170310 -0.098133 -1.322238
v 0.328279 -0.189336 -1.291114
v 0.463929 -0.267654 -1.241605
v 0.568018 -0.327749 -1.177082
v 0.633450 -0.365527 -1.101944
v 0.655768 -0.378412 -1.021311
v 0.378942 -0.655239 -1.021311
v 0.366056 -0.632921 -1.101944
v 0.328279 -0.567488 -1.177082
v 0.268183 -0.463400 -1.241605
v 0.189865 -0.327749 -1.291114
v 0.098662 -0.169781 -1.322238
v 0.000789 -0.196006 -1.322238
v 0.000789 -0.378412 -1.291114
v 0.000789 -0.535048 -1.241605
v 0.000789 -0.655239 -1.177082
v 0.000789 -0.730794 -1.101944
v 0.000789 -0.756564 -1.021311
v -0.377363 -0.655239 -1.021311
v -0.364478 -0.632921 -1.101944
v -0.326700 -0.567488 -1.177082
v -0.266605 -0.463400 -1.241605
v -0.188287 -0.327749 -1.291114
v -0.097084 -0.169781 -1.322238
v -0.168732 -0.098133 -1.322238
v -0.326700 -0.189336 -1.291114
v -0.462351 -0.267654 -1.241605
v -0.566439 -0.327749 -1.177082
v -0.631872 -0.365527 -1.101944
v -0.654189 -0.378412 -1.021311
v -0.755515 -0.000260 -1.021311
v -0.729744 -0.000260 -1.101944
v -0.654189 -0.000260 -1.177082
v -0.533998 -0.000260 -1.241605
v -0.377363 -0.000260 -1.291114
v -0.194957 -0.000260 -1.322238
v -0.168732 0.097613 -1.322238
v -0.326700 0.188817 -1.291114
v -0.462350 0.267134 -1.241605
v -0.566439 0.327230 -1.177082
v -0.631871 0.365007 -1.101944
v -0.654189 0.377892 -1.021311
v -0.377363 0.654719 -1.021311
v -0.364477 0.632401 -1.101944
v -0.326700 0.566969 -1.177082
v -0.266604 0.462880 -1.241605
v -0.188287 0.327230 -1.291114
v -0.097083 0.169261 -1.322238
v 0.000789 -0.000260 -1.332853
v 0.000789 0.195486 -1.322238
v 0.000790 0.377892 -1.291114
v 0.000790 0.534528 -1.241605
v 0.000790 0.654719 -1.177082
v 0.000790 0.730274 -1.101944
v 0.000790 0.756045 -1.021311
usemtl Yellow_traffic_off
s 1
f 274 202 203 273
f 273 203 204 272
f 272 204 205 271
f 271 205 206 270
f 270 206 207 269
f 269 207 268
f 207 208 268
f 206 209 208 207
f 205 210 209 206
f 204 211 210 205
f 203 212 211 204
f 202 213 212 203
f 213 214 215 212
f 212 215 216 211
f 211 216 217 210
f 210 217 218 209
f 209 218 219 208
f 208 219 268
f 219 220 268
f 218 221 220 219
f 217 222 221 218
f 216 223 222 217
f 215 224 223 216
f 214 225 224 215
f 225 226 227 224
f 224 227 228 223
f 223 228 229 222
f 222 229 230 221
f 221 230 231 220
f 220 231 268
f 231 232 268
f 230 233 232 231
f 229 234 233 230
f 228 235 234 229
f 227 236 235 228
f 226 237 236 227
f 237 238 239 236
f 236 239 240 235
f 235 240 241 234
f 234 241 242 233
f 233 242 243 232
f 232 243 268
f 243 244 268
f 242 245 244 243
f 241 246 245 242
f 240 247 246 241
f 239 248 247 240
f 238 249 248 239
f 249 250 251 248
f 248 251 252 247
f 247 252 253 246
f 246 253 254 245
f 245 254 255 244
f 244 255 268
f 255 256 268
f 254 257 256 255
f 253 258 257 254
f 252 259 258 253
f 251 260 259 252
f 250 261 260 251
f 261 262 263 260
f 260 263 264 259
f 259 264 265 258
f 258 265 266 257
f 257 266 267 256
f 256 267 268
f 267 269 268
f 266 270 269 267
f 265 271 270 266
f 264 272 271 265
f 263 273 272 264
f 262 274 273 263
o Sphere.010_Sphere.012
v 0.378942 2.842417 -1.021311
v 0.366057 2.820099 -1.101944
v 0.328279 2.754667 -1.177082
v 0.268183 2.650578 -1.241605
v 0.189866 2.514928 -1.291114
v 0.098662 2.356960 -1.322238
v 0.170310 2.285312 -1.322238
v 0.328279 2.376515 -1.291114
v 0.463929 2.454833 -1.241605
v 0.568018 2.514928 -1.177082
v 0.633450 2.552705 -1.101944
v 0.655768 2.565591 -1.021311
v 0.757094 2.187438 -1.021311
v 0.731323 2.187438 -1.101944
v 0.655768 2.187438 -1.177082
v 0.535577 2.187438 -1.241605
v 0.378942 2.187438 -1.291114
v 0.196535 2.187438 -1.322238
v 0.170310 2.089566 -1.322238
v 0.328279 1.998362 -1.291114
v 0.463929 1.920044 -1.241605
v 0.568018 1.859949 -1.177082
v 0.633450 1.822172 -1.101944
v 0.655768 1.809286 -1.021311
v 0.378942 1.532460 -1.021311
v 0.366056 1.554778 -1.101944
v 0.328279 1.620210 -1.177082
v 0.268183 1.724298 -1.241605
v 0.189865 1.859949 -1.291114
v 0.098662 2.017918 -1.322238
v 0.000789 1.991693 -1.322238
v 0.000789 1.809286 -1.291114
v 0.000789 1.652651 -1.241605
v 0.000789 1.532460 -1.177082
v 0.000789 1.456905 -1.101944
v 0.000789 1.431134 -1.021311
v -0.377363 1.532460 -1.021311
v -0.364478 1.554778 -1.101944
v -0.326700 1.620210 -1.177082
v -0.266605 1.724299 -1.241605
v -0.188287 1.859949 -1.291114
v -0.097084 2.017918 -1.322238
v -0.168732 2.089566 -1.322238
v -0.326700 1.998363 -1.291114
v -0.462351 1.920045 -1.241605
v -0.566439 1.859949 -1.177082
v -0.631872 1.822172 -1.101944
v -0.654189 1.809286 -1.021311
v -0.755515 2.187438 -1.021311
v -0.729744 2.187439 -1.101944
v -0.654189 2.187438 -1.177082
v -0.533998 2.187438 -1.241605
v -0.377363 2.187439 -1.291114
v -0.194957 2.187439 -1.322238
v -0.168732 2.285312 -1.322238
v -0.326700 2.376515 -1.291114
v -0.462350 2.454833 -1.241605
v -0.566439 2.514928 -1.177082
v -0.631871 2.552706 -1.101944
v -0.654189 2.565591 -1.021311
v -0.377363 2.842417 -1.021311
v -0.364477 2.820099 -1.101944
v -0.326700 2.754667 -1.177082
v -0.266604 2.650579 -1.241605
v -0.188287 2.514928 -1.291114
v -0.097083 2.356960 -1.322238
v 0.000789 2.187438 -1.332853
v 0.000789 2.383185 -1.322238
v 0.000790 2.565591 -1.291114
v 0.000790 2.722227 -1.241605
v 0.000790 2.842417 -1.177082
v 0.000790 2.917972 -1.101944
v 0.000790 2.943743 -1.021311
usemtl Red_Traffic_off
s 1
f 347 275 276 346
f 346 276 277 345
f 345 277 278 344
f 344 278 279 343
f 343 279 280 342
f 342 280 341
f 280 281 341
f 279 282 281 280
f 278 283 282 279
f 277 284 283 278
f 276 285 284 277
f 275 286 285 276
f 286 287 288 285
f 285 288 289 284
f 284 289 290 283
f 283 290 291 282
f 282 291 292 281
f 281 292 341
f 292 293 341
f 291 294 293 292
f 290 295 294 291
f 289 296 295 290
f 288 297 296 289
f 287 298 297 288
f 298 299 300 297
f 297 300 301 296
f 296 301 302 295
f 295 302 303 294
f 294 303 304 293
f 293 304 341
f 304 305 341
f 303 306 305 304
f 302 307 306 303
f 301 308 307 302
f 300 309 308 301
f 299 310 309 300
f 310 311 312 309
f 309 312 313 308
f 308 313 314 307
f 307 314 315 306
f 306 315 316 305
f 305 316 341
f 316 317 341
f 315 318 317 316
f 314 319 318 315
f 313 320 319 314
f 312 321 320 313
f 311 322 321 312
f 322 323 324 321
f 321 324 325 320
f 320 325 326 319
f 319 326 327 318
f 318 327 328 317
f 317 328 341
f 328 329 341
f 327 330 329 328
f 326 331 330 327
f 325 332 331 326
f 324 333 332 325
f 323 334 333 324
f 334 335 336 333
f 333 336 337 332
f 332 337 338 331
f 331 338 339 330
f 330 339 340 329
f 329 340 341
f 340 342 341
f 339 343 342 340
f 338 344 343 339
f 337 345 344 338
f 336 346 345 337
f 335 347 346 336
o Sphere.009_Sphere.011
v 0.378942 -1.532977 -1.021311
v 0.366057 -1.555295 -1.101944
v 0.328279 -1.620728 -1.177082
v 0.268183 -1.724816 -1.241605
v 0.189866 -1.860467 -1.291114
v 0.098662 -2.018435 -1.322238
v 0.170310 -2.090083 -1.322238
v 0.328279 -1.998880 -1.291114
v 0.463929 -1.920562 -1.241605
v 0.568018 -1.860467 -1.177082
v 0.633450 -1.822689 -1.101944
v 0.655768 -1.809804 -1.021311
v 0.757094 -2.187956 -1.021311
v 0.731323 -2.187956 -1.101944
v 0.655768 -2.187956 -1.177082
v 0.535577 -2.187956 -1.241605
v 0.378942 -2.187956 -1.291114
v 0.196535 -2.187956 -1.322238
v 0.170310 -2.285829 -1.322238
v 0.328279 -2.377033 -1.291114
v 0.463929 -2.455350 -1.241605
v 0.568018 -2.515446 -1.177082
v 0.633450 -2.553223 -1.101944
v 0.655768 -2.566109 -1.021311
v 0.378942 -2.842935 -1.021311
v 0.366056 -2.820617 -1.101944
v 0.328279 -2.755185 -1.177082
v 0.268183 -2.651096 -1.241605
v 0.189865 -2.515446 -1.291114
v 0.098662 -2.357477 -1.322238
v 0.000789 -2.383702 -1.322238
v 0.000789 -2.566108 -1.291114
v 0.000789 -2.722744 -1.241605
v 0.000789 -2.842935 -1.177082
v 0.000789 -2.918490 -1.101944
v 0.000789 -2.944261 -1.021311
v -0.377363 -2.842935 -1.021311
v -0.364478 -2.820617 -1.101944
v -0.326700 -2.755185 -1.177082
v -0.266605 -2.651096 -1.241605
v -0.188287 -2.515446 -1.291114
v -0.097084 -2.357477 -1.322238
v -0.168732 -2.285829 -1.322238
v -0.326700 -2.377032 -1.291114
v -0.462351 -2.455350 -1.241605
v -0.566439 -2.515446 -1.177082
v -0.631872 -2.553223 -1.101944
v -0.654189 -2.566108 -1.021311
v -0.755515 -2.187956 -1.021311
v -0.729744 -2.187956 -1.101944
v -0.654189 -2.187956 -1.177082
v -0.533998 -2.187956 -1.241605
v -0.377363 -2.187956 -1.291114
v -0.194957 -2.187956 -1.322238
v -0.168732 -2.090083 -1.322238
v -0.326700 -1.998880 -1.291114
v -0.462350 -1.920562 -1.241605
v -0.566439 -1.860467 -1.177082
v -0.631871 -1.822689 -1.101944
v -0.654189 -1.809804 -1.021311
v -0.377363 -1.532977 -1.021311
v -0.364477 -1.555295 -1.101944
v -0.326700 -1.620728 -1.177082
v -0.266604 -1.724816 -1.241605
v -0.188287 -1.860467 -1.291114
v -0.097083 -2.018435 -1.322238
v 0.000789 -2.187956 -1.332853
v 0.000789 -1.992210 -1.322238
v 0.000790 -1.809804 -1.291114
v 0.000790 -1.653168 -1.241605
v 0.000790 -1.532977 -1.177082
v 0.000790 -1.457422 -1.101944
v 0.000790 -1.431652 -1.021311
usemtl Green_light_off
s 1
f 420 348 349 419
f 419 349 350 418
f 418 350 351 417
f 417 351 352 416
f 416 352 353 415
f 415 353 414
f 353 354 414
f 352 355 354 353
f 351 356 355 352
f 350 357 356 351
f 349 358 357 350
f 348 359 358 349
f 359 360 361 358
f 358 361 362 357
f 357 362 363 356
f 356 363 364 355
f 355 364 365 354
f 354 365 414
f 365 366 414
f 364 367 366 365
f 363 368 367 364
f 362 369 368 363
f 361 370 369 362
f 360 371 370 361
f 371 372 373 370
f 370 373 374 369
f 369 374 375 368
f 368 375 376 367
f 367 376 377 366
f 366 377 414
f 377 378 414
f 376 379 378 377
f 375 380 379 376
f 374 381 380 375
f 373 382 381 374
f 372 383 382 373
f 383 384 385 382
f 382 385 386 381
f 381 386 387 380
f 380 387 388 379
f 379 388 389 378
f 378 389 414
f 389 390 414
f 388 391 390 389
f 387 392 391 388
f 386 393 392 387
f 385 394 393 386
f 384 395 394 385
f 395 396 397 394
f 394 397 398 393
f 393 398 399 392
f 392 399 400 391
f 391 400 401 390
f 390 401 414
f 401 402 414
f 400 403 402 401
f 399 404 403 400
f 398 405 404 399
f 397 406 405 398
f 396 407 406 397
f 407 408 409 406
f 406 409 410 405
f 405 410 411 404
f 404 411 412 403
f 403 412 413 402
f 402 413 414
f 413 415 414
f 412 416 415 413
f 411 417 416 412
f 410 418 417 411
f 409 419 418 410
f 408 420 419 409
o Sphere.008_Sphere.010
v -0.377363 -1.532977 1.021315
v -0.364477 -1.555295 1.101948
v -0.326700 -1.620728 1.177086
v -0.266604 -1.724816 1.241608
v -0.188286 -1.860467 1.291118
v -0.097083 -2.018435 1.322242
v -0.168731 -2.090083 1.322242
v -0.326700 -1.998880 1.291118
v -0.462350 -1.920562 1.241608
v -0.566439 -1.860467 1.177086
v -0.631871 -1.822689 1.101948
v -0.654189 -1.809804 1.021315
v -0.755515 -2.187956 1.021315
v -0.729744 -2.187956 1.101948
v -0.654189 -2.187956 1.177086
v -0.533998 -2.187956 1.241609
v -0.377363 -2.187956 1.291118
v -0.194956 -2.187956 1.322242
v -0.168731 -2.285829 1.322242
v -0.326700 -2.377032 1.291118
v -0.462350 -2.455350 1.241608
v -0.566439 -2.515446 1.177086
v -0.631871 -2.553223 1.101948
v -0.654189 -2.566108 1.021315
v -0.377363 -2.842935 1.021315
v -0.364477 -2.820617 1.101948
v -0.326700 -2.755185 1.177086
v -0.266604 -2.651096 1.241608
v -0.188286 -2.515446 1.291118
v -0.097083 -2.357477 1.322242
v 0.000790 -2.383702 1.322242
v 0.000790 -2.566108 1.291118
v 0.000790 -2.722744 1.241608
v 0.000790 -2.842935 1.177086
v 0.000790 -2.918490 1.101948
v 0.000789 -2.944261 1.021314
v 0.378942 -2.842935 1.021314
v 0.366057 -2.820617 1.101948
v 0.328279 -2.755185 1.177086
v 0.268184 -2.651096 1.241608
v 0.189866 -2.515446 1.291118
v 0.098663 -2.357477 1.322242
v 0.170311 -2.285829 1.322242
v 0.328279 -2.377032 1.291118
v 0.463930 -2.455350 1.241608
v 0.568018 -2.515446 1.177086
v 0.633451 -2.553223 1.101948
v 0.655768 -2.566109 1.021314
v 0.757094 -2.187956 1.021314
v 0.731323 -2.187956 1.101948
v 0.655768 -2.187956 1.177086
v 0.535577 -2.187956 1.241608
v 0.378942 -2.187956 1.291118
v 0.196536 -2.187956 1.322242
v 0.170311 -2.090083 1.322242
v 0.328279 -1.998880 1.291118
v 0.463930 -1.920562 1.241608
v 0.568018 -1.860467 1.177086
v 0.633450 -1.822689 1.101948
v 0.655768 -1.809804 1.021314
v 0.378942 -1.532977 1.021314
v 0.366056 -1.555295 1.101948
v 0.328279 -1.620728 1.177086
v 0.268184 -1.724816 1.241608
v 0.189866 -1.860467 1.291118
v 0.098663 -2.018435 1.322242
v 0.000790 -2.187956 1.332857
v 0.000790 -1.992210 1.322242
v 0.000790 -1.809804 1.291118
v 0.000790 -1.653168 1.241608
v 0.000790 -1.532977 1.177086
v 0.000789 -1.457422 1.101948
v 0.000790 -1.431652 1.021314
usemtl Green_light_off
s 1
f 493 421 422 492
f 492 422 423 491
f 491 423 424 490
f 490 424 425 489
f 489 425 426 488
f 488 426 487
f 426 427 487
f 425 428 427 426
f 424 429 428 425
f 423 430 429 424
f 422 431 430 423
f 421 432 431 422
f 432 433 434 431
f 431 434 435 430
f 430 435 436 429
f 429 436 437 428
f 428 437 438 427
f 427 438 487
f 438 439 487
f 437 440 439 438
f 436 441 440 437
f 435 442 441 436
f 434 443 442 435
f 433 444 443 434
f 444 445 446 443
f 443 446 447 442
f 442 447 448 441
f 441 448 449 440
f 440 449 450 439
f 439 450 487
f 450 451 487
f 449 452 451 450
f 448 453 452 449
f 447 454 453 448
f 446 455 454 447
f 445 456 455 446
f 456 457 458 455
f 455 458 459 454
f 454 459 460 453
f 453 460 461 452
f 452 461 462 451
f 451 462 487
f 462 463 487
f 461 464 463 462
f 460 465 464 461
f 459 466 465 460
f 458 467 466 459
f 457 468 467 458
f 468 469 470 467
f 467 470 471 466
f 466 471 472 465
f 465 472 473 464
f 464 473 474 463
f 463 474 487
f 474 475 487
f 473 476 475 474
f 472 477 476 473
f 471 478 477 472
f 470 479 478 471
f 469 480 479 470
f 480 481 482 479
f 479 482 483 478
f 478 483 484 477
f 477 484 485 476
f 476 485 486 475
f 475 486 487
f 486 488 487
f 485 489 488 486
f 484 490 489 485
f 483 491 490 484
f 482 492 491 483
f 481 493 492 482
o Sphere.007_Sphere.009
v -0.377363 2.842417 1.021315
v -0.364477 2.820099 1.101948
v -0.326700 2.754667 1.177086
v -0.266604 2.650579 1.241608
v -0.188286 2.514928 1.291118
v -0.097083 2.356960 1.322242
v -0.168731 2.285312 1.322242
v -0.326700 2.376515 1.291118
v -0.462350 2.454833 1.241608
v -0.566439 2.514928 1.177086
v -0.631871 2.552706 1.101948
v -0.654189 2.565591 1.021315
v -0.755515 2.187438 1.021315
v -0.729744 2.187438 1.101948
v -0.654189 2.187438 1.177086
v -0.533998 2.187438 1.241609
v -0.377363 2.187438 1.291118
v -0.194956 2.187438 1.322242
v -0.168731 2.089566 1.322242
v -0.326700 1.998362 1.291118
v -0.462350 1.920045 1.241608
v -0.566439 1.859949 1.177086
v -0.631871 1.822172 1.101948
v -0.654189 1.809286 1.021315
v -0.377363 1.532460 1.021315
v -0.364477 1.554778 1.101948
v -0.326700 1.620210 1.177086
v -0.266604 1.724299 1.241608
v -0.188286 1.859949 1.291118
v -0.097083 2.017918 1.322242
v 0.000790 1.991693 1.322242
v 0.000790 1.809286 1.291118
v 0.000790 1.652651 1.241608
v 0.000790 1.532460 1.177086
v 0.000790 1.456905 1.101948
v 0.000789 1.431134 1.021314
v 0.378942 1.532460 1.021314
v 0.366057 1.554778 1.101948
v 0.328279 1.620210 1.177086
v 0.268184 1.724299 1.241608
v 0.189866 1.859949 1.291118
v 0.098663 2.017918 1.322242
v 0.170311 2.089566 1.322242
v 0.328279 1.998363 1.291118
v 0.463930 1.920045 1.241608
v 0.568018 1.859949 1.177086
v 0.633451 1.822172 1.101948
v 0.655768 1.809286 1.021314
v 0.757094 2.187438 1.021314
v 0.731323 2.187439 1.101948
v 0.655768 2.187438 1.177086
v 0.535577 2.187438 1.241608
v 0.378942 2.187439 1.291118
v 0.196536 2.187439 1.322242
v 0.170311 2.285312 1.322242
v 0.328279 2.376515 1.291118
v 0.463930 2.454833 1.241608
v 0.568018 2.514928 1.177086
v 0.633450 2.552706 1.101948
v 0.655768 2.565591 1.021314
v 0.378942 2.842417 1.021314
v 0.366056 2.820099 1.101948
v 0.328279 2.754667 1.177086
v 0.268184 2.650578 1.241608
v 0.189866 2.514928 1.291118
v 0.098663 2.356960 1.322242
v 0.000790 2.187438 1.332857
v 0.000790 2.383185 1.322242
v 0.000790 2.565591 1.291118
v 0.000790 2.722227 1.241608
v 0.000790 2.842417 1.177086
v 0.000789 2.917972 1.101948
v 0.000790 2.943743 1.021314
usemtl Red_Traffic_off
s 1
f 566 494 495 565
f 565 495 496 564
f 564 496 497 563
f 563 497 498 562
f 562 498 499 561
f 561 499 560
f 499 500 560
f 498 501 500 499
f 497 502 501 498
f 496 503 502 497
f 495 504 503 496
f 494 505 504 495
f 505 506 507 504
f 504 507 508 503
f 503 508 509 502
f 502 509 510 501
f 501 510 511 500
f 500 511 560
f 511 512 560
f 510 513 512 511
f 509 514 513 510
f 508 515 514 509
f 507 516 515 508
f 506 517 516 507
f 517 518 519 516
f 516 519 520 515
f 515 520 521 514
f 514 521 522 513
f 513 522 523 512
f 512 523 560
f 523 524 560
f 522 525 524 523
f 521 526 525 522
f 520 527 526 521
f 519 528 527 520
f 518 529 528 519
f 529 530 531 528
f 528 531 532 527
f 527 532 533 526
f 526 533 534 525
f 525 534 535 524
f 524 535 560
f 535 536 560
f 534 537 536 535
f 533 538 537 534
f 532 539 538 533
f 531 540 539 532
f 530 541 540 531
f 541 542 543 540
f 540 543 544 539
f 539 544 545 538
f 538 545 546 537
f 537 546 547 536
f 536 547 560
f 547 548 560
f 546 549 548 547
f 545 550 549 546
f 544 551 550 545
f 543 552 551 544
f 542 553 552 543
f 553 554 555 552
f 552 555 556 551
f 551 556 557 550
f 550 557 558 549
f 549 558 559 548
f 548 559 560
f 559 561 560
f 558 562 561 559
f 557 563 562 558
f 556 564 563 557
f 555 565 564 556
f 554 566 565 555
o Sphere.006_Sphere.008
v -0.377363 0.654719 1.021315
v -0.364477 0.632401 1.101948
v -0.326700 0.566969 1.177086
v -0.266604 0.462880 1.241608
v -0.188286 0.327230 1.291118
v -0.097083 0.169261 1.322242
v -0.168731 0.097613 1.322242
v -0.326700 0.188816 1.291118
v -0.462350 0.267134 1.241608
v -0.566439 0.327230 1.177086
v -0.631871 0.365007 1.101948
v -0.654189 0.377892 1.021315
v -0.755515 -0.000260 1.021315
v -0.729744 -0.000260 1.101948
v -0.654189 -0.000260 1.177086
v -0.533998 -0.000260 1.241609
v -0.377363 -0.000260 1.291118
v -0.194956 -0.000260 1.322242
v -0.168731 -0.098133 1.322242
v -0.326700 -0.189336 1.291118
v -0.462350 -0.267654 1.241608
v -0.566439 -0.327749 1.177086
v -0.631871 -0.365527 1.101948
v -0.654189 -0.378412 1.021315
v -0.377363 -0.655239 1.021315
v -0.364477 -0.632921 1.101948
v -0.326700 -0.567488 1.177086
v -0.266604 -0.463400 1.241608
v -0.188286 -0.327749 1.291118
v -0.097083 -0.169781 1.322242
v 0.000790 -0.196006 1.322242
v 0.000790 -0.378412 1.291118
v 0.000790 -0.535048 1.241608
v 0.000790 -0.655239 1.177086
v 0.000790 -0.730794 1.101948
v 0.000789 -0.756564 1.021314
v 0.378942 -0.655239 1.021314
v 0.366057 -0.632921 1.101948
v 0.328279 -0.567488 1.177086
v 0.268184 -0.463400 1.241608
v 0.189866 -0.327749 1.291118
v 0.098663 -0.169781 1.322242
v 0.170311 -0.098133 1.322242
v 0.328279 -0.189336 1.291118
v 0.463930 -0.267654 1.241608
v 0.568018 -0.327749 1.177086
v 0.633451 -0.365527 1.101948
v 0.655768 -0.378412 1.021314
v 0.757094 -0.000260 1.021314
v 0.731323 -0.000260 1.101948
v 0.655768 -0.000260 1.177086
v 0.535577 -0.000260 1.241608
v 0.378942 -0.000260 1.291118
v 0.196536 -0.000260 1.322242
v 0.170311 0.097613 1.322242
v 0.328279 0.188816 1.291118
v 0.463930 0.267134 1.241608
v 0.568018 0.327230 1.177086
v 0.633450 0.365007 1.101948
v 0.655768 0.377892 1.021314
v 0.378942 0.654719 1.021314
v 0.366056 0.632401 1.101948
v 0.328279 0.566969 1.177086
v 0.268184 0.462880 1.241608
v 0.189866 0.327230 1.291118
v 0.098663 0.169261 1.322242
v 0.000790 -0.000260 1.332857
v 0.000790 0.195486 1.322242
v 0.000790 0.377892 1.291118
v 0.000790 0.534528 1.241608
v 0.000790 0.654719 1.177086
v 0.000789 0.730274 1.101948
v 0.000790 0.756045 1.021314
usemtl Yellow_traffic_off
s 1
f 639 567 568 638
f 638 568 569 637
f 637 569 570 636
f 636 570 571 635
f 635 571 572 634
f 634 572 633
f 572 573 633
f 571 574 573 572
f 570 575 574 571
f 569 576 575 570
f 568 577 576 569
f 567 578 577 568
f 578 579 580 577
f 577 580 581 576
f 576 581 582 575
f 575 582 583 574
f 574 583 584 573
f 573 584 633
f 584 585 633
f 583 586 585 584
f 582 587 586 583
f 581 588 587 582
f 580 589 588 581
f 579 590 589 580
f 590 591 592 589
f 589 592 593 588
f 588 593 594 587
f 587 594 595 586
f 586 595 596 585
f 585 596 633
f 596 597 633
f 595 598 597 596
f 594 599 598 595
f 593 600 599 594
f 592 601 600 593
f 591 602 601 592
f 602 603 604 601
f 601 604 605 600
f 600 605 606 599
f 599 606 607 598
f 598 607 608 597
f 597 608 633
f 608 609 633
f 607 610 609 608
f 606 611 610 607
f 605 612 611 606
f 604 613 612 605
f 603 614 613 604
f 614 615 616 613
f 613 616 617 612
f 612 617 618 611
f 611 618 619 610
f 610 619 620 609
f 609 620 633
f 620 621 633
f 619 622 621 620
f 618 623 622 619
f 617 624 623 618
f 616 625 624 617
f 615 626 625 616
f 626 627 628 625
f 625 628 629 624
f 624 629 630 623
f 623 630 631 622
f 622 631 632 621
f 621 632 633
f 632 634 633
f 631 635 634 632
f 630 636 635 631
f 629 637 636 630
f 628 638 637 629
f 627 639 638 628
o Sphere.005_Sphere.007
v 1.022101 0.654719 0.378154
v 1.102735 0.632401 0.365269
v 1.177873 0.566969 0.327491
v 1.242395 0.462880 0.267396
v 1.291905 0.327230 0.189078
v 1.323028 0.169261 0.097875
v 1.323028 0.097613 0.169523
v 1.291905 0.188816 0.327491
v 1.242395 0.267134 0.463142
v 1.177873 0.327230 0.567230
v 1.102735 0.365007 0.632663
v 1.022101 0.377892 0.654981
v 1.022101 -0.000260 0.756306
v 1.102735 -0.000260 0.730536
v 1.177873 -0.000260 0.654981
v 1.242395 -0.000260 0.534790
v 1.291905 -0.000260 0.378154
v 1.323028 -0.000260 0.195748
v 1.323028 -0.098133 0.169523
v 1.291905 -0.189336 0.327491
v 1.242395 -0.267654 0.463142
v 1.177873 -0.327749 0.567230
v 1.102735 -0.365527 0.632663
v 1.022101 -0.378412 0.654981
v 1.022101 -0.655239 0.378154
v 1.102734 -0.632921 0.365269
v 1.177873 -0.567488 0.327491
v 1.242395 -0.463400 0.267396
v 1.291905 -0.327749 0.189078
v 1.323028 -0.169781 0.097875
v 1.323028 -0.196006 0.000002
v 1.291905 -0.378412 0.000002
v 1.242395 -0.535048 0.000002
v 1.177873 -0.655239 0.000002
v 1.102734 -0.730794 0.000002
v 1.022101 -0.756564 0.000002
v 1.022101 -0.655239 -0.378150
v 1.102734 -0.632921 -0.365265
v 1.177873 -0.567488 -0.327488
v 1.242395 -0.463400 -0.267392
v 1.291905 -0.327749 -0.189074
v 1.323028 -0.169781 -0.097871
v 1.323028 -0.098133 -0.169519
v 1.291905 -0.189336 -0.327488
v 1.242395 -0.267654 -0.463138
v 1.177873 -0.327749 -0.567226
v 1.102734 -0.365527 -0.632659
v 1.022101 -0.378412 -0.654977
v 1.022101 -0.000260 -0.756302
v 1.102734 -0.000260 -0.730532
v 1.177873 -0.000260 -0.654977
v 1.242395 -0.000260 -0.534786
v 1.291905 -0.000260 -0.378150
v 1.323028 -0.000260 -0.195744
v 1.323028 0.097613 -0.169519
v 1.291905 0.188816 -0.327487
v 1.242395 0.267134 -0.463138
v 1.177873 0.327230 -0.567226
v 1.102734 0.365007 -0.632659
v 1.022101 0.377892 -0.654977
v 1.022101 0.654719 -0.378150
v 1.102735 0.632401 -0.365265
v 1.177873 0.566969 -0.327487
v 1.242395 0.462880 -0.267392
v 1.291905 0.327230 -0.189074
v 1.323028 0.169261 -0.097871
v 1.333644 -0.000260 0.000002
v 1.323028 0.195486 0.000002
v 1.291905 0.377892 0.000002
v 1.242395 0.534528 0.000002
v 1.177873 0.654719 0.000002
v 1.102735 0.730274 0.000002
v 1.022101 0.756045 0.000002
usemtl Yellow_traffic_off
s 1
f 712 640 641 711
f 711 641 642 710
f 710 642 643 709
f 709 643 644 708
f 708 644 645 707
f 707 645 706
f 645 646 706
f 644 647 646 645
f 643 648 647 644
f 642 649 648 643
f 641 650 649 642
f 640 651 650 641
f 651 652 653 650
f 650 653 654 649
f 649 654 655 648
f 648 655 656 647
f 647 656 657 646
f 646 657 706
f 657 658 706
f 656 659 658 657
f 655 660 659 656
f 654 661 660 655
f 653 662 661 654
f 652 663 662 653
f 663 664 665 662
f 662 665 666 661
f 661 666 667 660
f 660 667 668 659
f 659 668 669 658
f 658 669 706
f 669 670 706
f 668 671 670 669
f 667 672 671 668
f 666 673 672 667
f 665 674 673 666
f 664 675 674 665
f 675 676 677 674
f 674 677 678 673
f 673 678 679 672
f 672 679 680 671
f 671 680 681 670
f 670 681 706
f 681 682 706
f 680 683 682 681
f 679 684 683 680
f 678 685 684 679
f 677 686 685 678
f 676 687 686 677
f 687 688 689 686
f 686 689 690 685
f 685 690 691 684
f 684 691 692 683
f 683 692 693 682
f 682 693 706
f 693 694 706
f 692 695 694 693
f 691 696 695 692
f 690 697 696 691
f 689 698 697 690
f 688 699 698 689
f 699 700 701 698
f 698 701 702 697
f 697 702 703 696
f 696 703 704 695
f 695 704 705 694
f 694 705 706
f 705 707 706
f 704 708 707 705
f 703 709 708 704
f 702 710 709 703
f 701 711 710 702
f 700 712 711 701
o Sphere.004_Sphere.006
v 1.022101 2.842417 0.378154
v 1.102735 2.820099 0.365269
v 1.177873 2.754667 0.327491
v 1.242395 2.650578 0.267396
v 1.291905 2.514928 0.189078
v 1.323028 2.356960 0.097875
v 1.323028 2.285312 0.169523
v 1.291905 2.376515 0.327491
v 1.242395 2.454833 0.463142
v 1.177873 2.514928 0.567230
v 1.102735 2.552706 0.632663
v 1.022101 2.565591 0.654981
v 1.022101 2.187438 0.756306
v 1.102735 2.187438 0.730536
v 1.177873 2.187438 0.654981
v 1.242395 2.187438 0.534790
v 1.291905 2.187438 0.378154
v 1.323028 2.187438 0.195748
v 1.323028 2.089566 0.169523
v 1.291905 1.998362 0.327491
v 1.242395 1.920044 0.463142
v 1.177873 1.859949 0.567230
v 1.102735 1.822172 0.632663
v 1.022101 1.809286 0.654981
v 1.022101 1.532460 0.378154
v 1.102734 1.554778 0.365269
v 1.177873 1.620210 0.327491
v 1.242395 1.724299 0.267396
v 1.291905 1.859949 0.189078
v 1.323028 2.017918 0.097875
v 1.323028 1.991693 0.000002
v 1.291905 1.809286 0.000002
v 1.242395 1.652651 0.000002
v 1.177873 1.532460 0.000002
v 1.102734 1.456905 0.000002
v 1.022101 1.431134 0.000002
v 1.022101 1.532460 -0.378150
v 1.102734 1.554778 -0.365265
v 1.177873 1.620210 -0.327488
v 1.242395 1.724299 -0.267392
v 1.291905 1.859949 -0.189074
v 1.323028 2.017918 -0.097871
v 1.323028 2.089566 -0.169519
v 1.291905 1.998363 -0.327488
v 1.242395 1.920045 -0.463138
v 1.177873 1.859949 -0.567226
v 1.102734 1.822172 -0.632659
v 1.022101 1.809286 -0.654977
v 1.022101 2.187438 -0.756302
v 1.102734 2.187439 -0.730532
v 1.177873 2.187438 -0.654977
v 1.242395 2.187438 -0.534786
v 1.291905 2.187439 -0.378150
v 1.323028 2.187439 -0.195744
v 1.323028 2.285312 -0.169519
v 1.291905 2.376515 -0.327487
v 1.242395 2.454833 -0.463138
v 1.177873 2.514928 -0.567226
v 1.102734 2.552706 -0.632659
v 1.022101 2.565591 -0.654977
v 1.022101 2.842417 -0.378150
v 1.102735 2.820099 -0.365265
v 1.177873 2.754667 -0.327487
v 1.242395 2.650578 -0.267392
v 1.291905 2.514928 -0.189074
v 1.323028 2.356960 -0.097871
v 1.333644 2.187438 0.000002
v 1.323028 2.383184 0.000002
v 1.291905 2.565591 0.000002
v 1.242395 2.722227 0.000002
v 1.177873 2.842417 0.000002
v 1.102735 2.917972 0.000002
v 1.022101 2.943743 0.000002
usemtl Red_Traffic_off
s 1
f 785 713 714 784
f 784 714 715 783
f 783 715 716 782
f 782 716 717 781
f 781 717 718 780
f 780 718 779
f 718 719 779
f 717 720 719 718
f 716 721 720 717
f 715 722 721 716
f 714 723 722 715
f 713 724 723 714
f 724 725 726 723
f 723 726 727 722
f 722 727 728 721
f 721 728 729 720
f 720 729 730 719
f 719 730 779
f 730 731 779
f 729 732 731 730
f 728 733 732 729
f 727 734 733 728
f 726 735 734 727
f 725 736 735 726
f 736 737 738 735
f 735 738 739 734
f 734 739 740 733
f 733 740 741 732
f 732 741 742 731
f 731 742 779
f 742 743 779
f 741 744 743 742
f 740 745 744 741
f 739 746 745 740
f 738 747 746 739
f 737 748 747 738
f 748 749 750 747
f 747 750 751 746
f 746 751 752 745
f 745 752 753 744
f 744 753 754 743
f 743 754 779
f 754 755 779
f 753 756 755 754
f 752 757 756 753
f 751 758 757 752
f 750 759 758 751
f 749 760 759 750
f 760 761 762 759
f 759 762 763 758
f 758 763 764 757
f 757 764 765 756
f 756 765 766 755
f 755 766 779
f 766 767 779
f 765 768 767 766
f 764 769 768 765
f 763 770 769 764
f 762 771 770 763
f 761 772 771 762
f 772 773 774 771
f 771 774 775 770
f 770 775 776 769
f 769 776 777 768
f 768 777 778 767
f 767 778 779
f 778 780 779
f 777 781 780 778
f 776 782 781 777
f 775 783 782 776
f 774 784 783 775
f 773 785 784 774
o Sphere.003_Sphere.005
v 1.022101 -1.532977 0.378154
v 1.102735 -1.555295 0.365269
v 1.177873 -1.620728 0.327491
v 1.242395 -1.724816 0.267396
v 1.291905 -1.860467 0.189078
v 1.323028 -2.018435 0.097875
v 1.323028 -2.090083 0.169523
v 1.291905 -1.998880 0.327491
v 1.242395 -1.920562 0.463142
v 1.177873 -1.860467 0.567230
v 1.102735 -1.822689 0.632663
v 1.022101 -1.809804 0.654981
v 1.022101 -2.187956 0.756306
v 1.102735 -2.187956 0.730536
v 1.177873 -2.187956 0.654981
v 1.242395 -2.187956 0.534790
v 1.291905 -2.187956 0.378154
v 1.323028 -2.187956 0.195748
v 1.323028 -2.285829 0.169523
v 1.291905 -2.377032 0.327491
v 1.242395 -2.455350 0.463142
v 1.177873 -2.515446 0.567230
v 1.102735 -2.553223 0.632663
v 1.022101 -2.566109 0.654981
v 1.022101 -2.842935 0.378154
v 1.102734 -2.820617 0.365269
v 1.177873 -2.755185 0.327491
v 1.242395 -2.651096 0.267396
v 1.291905 -2.515446 0.189078
v 1.323028 -2.357477 0.097875
v 1.323028 -2.383702 0.000002
v 1.291905 -2.566108 0.000002
v 1.242395 -2.722744 0.000002
v 1.177873 -2.842935 0.000002
v 1.102734 -2.918490 0.000002
v 1.022101 -2.944261 0.000002
v 1.022101 -2.842935 -0.378150
v 1.102734 -2.820617 -0.365265
v 1.177873 -2.755185 -0.327488
v 1.242395 -2.651096 -0.267392
v 1.291905 -2.515446 -0.189074
v 1.323028 -2.357477 -0.097871
v 1.323028 -2.285829 -0.169519
v 1.291905 -2.377032 -0.327488
v 1.242395 -2.455350 -0.463138
v 1.177873 -2.515446 -0.567226
v 1.102734 -2.553223 -0.632659
v 1.022101 -2.566109 -0.654977
v 1.022101 -2.187956 -0.756302
v 1.102734 -2.187956 -0.730532
v 1.177873 -2.187956 -0.654977
v 1.242395 -2.187956 -0.534786
v 1.291905 -2.187956 -0.378150
v 1.323028 -2.187956 -0.195744
v 1.323028 -2.090083 -0.169519
v 1.291905 -1.998880 -0.327487
v 1.242395 -1.920562 -0.463138
v 1.177873 -1.860467 -0.567226
v 1.102734 -1.822689 -0.632659
v 1.022101 -1.809804 -0.654977
v 1.022101 -1.532977 -0.378150
v 1.102735 -1.555295 -0.365265
v 1.177873 -1.620728 -0.327487
v 1.242395 -1.724816 -0.267392
v 1.291905 -1.860467 -0.189074
v 1.323028 -2.018435 -0.097871
v 1.333644 -2.187956 0.000002
v 1.323028 -1.992210 0.000002
v 1.291905 -1.809804 0.000002
v 1.242395 -1.653168 0.000002
v 1.177873 -1.532977 0.000002
v 1.102735 -1.457422 0.000002
v 1.022101 -1.431652 0.000002
usemtl Green_light_off
s 1
f 858 786 787 857
f 857 787 788 856
f 856 788 789 855
f 855 789 790 854
f 854 790 791 853
f 853 791 852
f 791 792 852
f 790 793 792 791
f 789 794 793 790
f 788 795 794 789
f 787 796 795 788
f 786 797 796 787
f 797 798 799 796
f 796 799 800 795
f 795 800 801 794
f 794 801 802 793
f 793 802 803 792
f 792 803 852
f 803 804 852
f 802 805 804 803
f 801 806 805 802
f 800 807 806 801
f 799 808 807 800
f 798 809 808 799
f 809 810 811 808
f 808 811 812 807
f 807 812 813 806
f 806 813 814 805
f 805 814 815 804
f 804 815 852
f 815 816 852
f 814 817 816 815
f 813 818 817 814
f 812 819 818 813
f 811 820 819 812
f 810 821 820 811
f 821 822 823 820
f 820 823 824 819
f 819 824 825 818
f 818 825 826 817
f 817 826 827 816
f 816 827 852
f 827 828 852
f 826 829 828 827
f 825 830 829 826
f 824 831 830 825
f 823 832 831 824
f 822 833 832 823
f 833 834 835 832
f 832 835 836 831
f 831 836 837 830
f 830 837 838 829
f 829 838 839 828
f 828 839 852
f 839 840 852
f 838 841 840 839
f 837 842 841 838
f 836 843 842 837
f 835 844 843 836
f 834 845 844 835
f 845 846 847 844
f 844 847 848 843
f 843 848 849 842
f 842 849 850 841
f 841 850 851 840
f 840 851 852
f 851 853 852
f 850 854 853 851
f 849 855 854 850
f 848 856 855 849
f 847 857 856 848
f 846 858 857 847
o Sphere_Sphere.003
v -1.020522 2.842417 -0.378150
v -1.101155 2.820099 -0.365265
v -1.176293 2.754667 -0.327487
v -1.240816 2.650578 -0.267392
v -1.290326 2.514928 -0.189074
v -1.321449 2.356960 -0.097871
v -1.321449 2.285312 -0.169519
v -1.290326 2.376515 -0.327487
v -1.240816 2.454833 -0.463138
v -1.176293 2.514928 -0.567226
v -1.101155 2.552706 -0.632659
v -1.020522 2.565591 -0.654977
v -1.020522 2.187438 -0.756302
v -1.101155 2.187438 -0.730532
v -1.176293 2.187438 -0.654977
v -1.240816 2.187438 -0.534786
v -1.290326 2.187438 -0.378150
v -1.321449 2.187438 -0.195744
v -1.321449 2.089566 -0.169519
v -1.290326 1.998362 -0.327487
v -1.240816 1.920044 -0.463138
v -1.176293 1.859949 -0.567226
v -1.101155 1.822172 -0.632659
v -1.020522 1.809286 -0.654977
v -1.020522 1.532460 -0.378150
v -1.101155 1.554778 -0.365265
v -1.176293 1.620210 -0.327487
v -1.240816 1.724299 -0.267392
v -1.290326 1.859949 -0.189074
v -1.321449 2.017918 -0.097871
v -1.321449 1.991693 0.000002
v -1.290326 1.809286 0.000002
v -1.240816 1.652651 0.000002
v -1.176293 1.532460 0.000002
v -1.101155 1.456905 0.000002
v -1.020522 1.431134 0.000002
v -1.020522 1.532460 0.378154
v -1.101155 1.554778 0.365269
v -1.176293 1.620210 0.327491
v -1.240816 1.724299 0.267396
v -1.290326 1.859949 0.189078
v -1.321449 2.017918 0.097875
v -1.321449 2.089566 0.169523
v -1.290326 1.998363 0.327491
v -1.240816 1.920045 0.463142
v -1.176293 1.859949 0.567230
v -1.101155 1.822172 0.632663
v -1.020522 1.809286 0.654981
v -1.020522 2.187438 0.756306
v -1.101155 2.187439 0.730536
v -1.176293 2.187438 0.654981
v -1.240816 2.187438 0.534790
v -1.290326 2.187439 0.378154
v -1.321449 2.187439 0.195748
v -1.321449 2.285312 0.169523
v -1.290326 2.376515 0.327491
v -1.240816 2.454833 0.463142
v -1.176293 2.514928 0.567230
v -1.101155 2.552706 0.632663
v -1.020522 2.565591 0.654981
v -1.020522 2.842417 0.378154
v -1.101155 2.820099 0.365269
v -1.176293 2.754667 0.327491
v -1.240816 2.650578 0.267396
v -1.290326 2.514928 0.189078
v -1.321449 2.356960 0.097875
v -1.332065 2.187438 0.000002
v -1.321449 2.383185 0.000002
v -1.290326 2.565591 0.000002
v -1.240816 2.722227 0.000002
v -1.176293 2.842417 0.000002
v -1.101155 2.917972 0.000002
v -1.020522 2.943743 0.000002
usemtl Red_Traffic_off
s 1
f 931 859 860 930
f 930 860 861 929
f 929 861 862 928
f 928 862 863 927
f 927 863 864 926
f 926 864 925
f 864 865 925
f 863 866 865 864
f 862 867 866 863
f 861 868 867 862
f 860 869 868 861
f 859 870 869 860
f 870 871 872 869
f 869 872 873 868
f 868 873 874 867
f 867 874 875 866
f 866 875 876 865
f 865 876 925
f 876 877 925
f 875 878 877 876
f 874 879 878 875
f 873 880 879 874
f 872 881 880 873
f 871 882 881 872
f 882 883 884 881
f 881 884 885 880
f 880 885 886 879
f 879 886 887 878
f 878 887 888 877
f 877 888 925
f 888 889 925
f 887 890 889 888
f 886 891 890 887
f 885 892 891 886
f 884 893 892 885
f 883 894 893 884
f 894 895 896 893
f 893 896 897 892
f 892 897 898 891
f 891 898 899 890
f 890 899 900 889
f 889 900 925
f 900 901 925
f 899 902 901 900
f 898 903 902 899
f 897 904 903 898
f 896 905 904 897
f 895 906 905 896
f 906 907 908 905
f 905 908 909 904
f 904 909 910 903
f 903 910 911 902
f 902 911 912 901
f 901 912 925
f 912 913 925
f 911 914 913 912
f 910 915 914 911
f 909 916 915 910
f 908 917 916 909
f 907 918 917 908
f 918 919 920 917
f 917 920 921 916
f 916 921 922 915
f 915 922 923 914
f 914 923 924 913
f 913 924 925
f 924 926 925
f 923 927 926 924
f 922 928 927 923
f 921 929 928 922
f 920 930 929 921
f 919 931 930 920
o Sphere.002
v -1.020522 0.654719 -0.378150
v -1.101155 0.632401 -0.365265
v -1.176293 0.566969 -0.327487
v -1.240816 0.462880 -0.267392
v -1.290326 0.327230 -0.189074
v -1.321449 0.169261 -0.097871
v -1.321449 0.097613 -0.169519
v -1.290326 0.188816 -0.327487
v -1.240816 0.267134 -0.463138
v -1.176293 0.327230 -0.567226
v -1.101155 0.365007 -0.632659
v -1.020522 0.377892 -0.654977
v -1.020522 -0.000260 -0.756302
v -1.101155 -0.000260 -0.730532
v -1.176293 -0.000260 -0.654977
v -1.240816 -0.000260 -0.534786
v -1.290326 -0.000260 -0.378150
v -1.321449 -0.000260 -0.195744
v -1.321449 -0.098133 -0.169519
v -1.290326 -0.189336 -0.327487
v -1.240816 -0.267654 -0.463138
v -1.176293 -0.327749 -0.567226
v -1.101155 -0.365527 -0.632659
v -1.020522 -0.378412 -0.654977
v -1.020522 -0.655239 -0.378150
v -1.101155 -0.632921 -0.365265
v -1.176293 -0.567488 -0.327487
v -1.240816 -0.463400 -0.267392
v -1.290326 -0.327749 -0.189074
v -1.321449 -0.169781 -0.097871
v -1.321449 -0.196006 0.000002
v -1.290326 -0.378412 0.000002
v -1.240816 -0.535048 0.000002
v -1.176293 -0.655239 0.000002
v -1.101155 -0.730794 0.000002
v -1.020522 -0.756564 0.000002
v -1.020522 -0.655239 0.378154
v -1.101155 -0.632921 0.365269
v -1.176293 -0.567488 0.327491
v -1.240816 -0.463400 0.267396
v -1.290326 -0.327749 0.189078
v -1.321449 -0.169781 0.097875
v -1.321449 -0.098133 0.169523
v -1.290326 -0.189336 0.327491
v -1.240816 -0.267654 0.463142
v -1.176293 -0.327749 0.567230
v -1.101155 -0.365527 0.632663
v -1.020522 -0.378412 0.654981
v -1.020522 -0.000260 0.756306
v -1.101155 -0.000260 0.730536
v -1.176293 -0.000260 0.654981
v -1.240816 -0.000260 0.534790
v -1.290326 -0.000260 0.378154
v -1.321449 -0.000260 0.195748
v -1.321449 0.097613 0.169523
v -1.290326 0.188817 0.327491
v -1.240816 0.267134 0.463142
v -1.176293 0.327230 0.567230
v -1.101155 0.365007 0.632663
v -1.020522 0.377892 0.654981
v -1.020522 0.654719 0.378154
v -1.101155 0.632401 0.365269
v -1.176293 0.566969 0.327491
v -1.240816 0.462880 0.267396
v -1.290326 0.327230 0.189078
v -1.321449 0.169261 0.097875
v -1.332065 -0.000260 0.000002
v -1.321449 0.195486 0.000002
v -1.290326 0.377892 0.000002
v -1.240816 0.534528 0.000002
v -1.176293 0.654719 0.000002
v -1.101155 0.730274 0.000002
v -1.020522 0.756045 0.000002
usemtl Yellow_traffic_off
s 1
f 1004 932 933 1003
f 1003 933 934 1002
f 1002 934 935 1001
f 1001 935 936 1000
f 1000 936 937 999
f 999 937 998
f 937 938 998
f 936 939 938 937
f 935 940 939 936
f 934 941 940 935
f 933 942 941 934
f 932 943 942 933
f 943 944 945 942
f 942 945 946 941
f 941 946 947 940
f 940 947 948 939
f 939 948 949 938
f 938 949 998
f 949 950 998
f 948 951 950 949
f 947 952 951 948
f 946 953 952 947
f 945 954 953 946
f 944 955 954 945
f 955 956 957 954
f 954 957 958 953
f 953 958 959 952
f 952 959 960 951
f 951 960 961 950
f 950 961 998
f 961 962 998
f 960 963 962 961
f 959 964 963 960
f 958 965 964 959
f 957 966 965 958
f 956 967 966 957
f 967 968 969 966
f 966 969 970 965
f 965 970 971 964
f 964 971 972 963
f 963 972 973 962
f 962 973 998
f 973 974 998
f 972 975 974 973
f 971 976 975 972
f 970 977 976 971
f 969 978 977 970
f 968 979 978 969
f 979 980 981 978
f 978 981 982 977
f 977 982 983 976
f 976 983 984 975
f 975 984 985 974
f 974 985 998
f 985 986 998
f 984 987 986 985
f 983 988 987 984
f 982 989 988 983
f 981 990 989 982
f 980 991 990 981
f 991 992 993 990
f 990 993 994 989
f 989 994 995 988
f 988 995 996 987
f 987 996 997 986
f 986 997 998
f 997 999 998
f 996 1000 999 997
f 995 1001 1000 996
f 994 1002 1001 995
f 993 1003 1002 994
f 992 1004 1003 993
